{
  "project_info": {
    "project_number": "103610082256",
    "firebase_url": "https://metagauge-dapp-default-rtdb.firebaseio.com",
    "project_id": "metagauge-dapp",
    "storage_bucket": "metagauge-dapp.appspot.com"
  },
  "client": [
    {
      "client_info": {
        "mobilesdk_app_id": "1:103610082256:android:ee4bc54e25bcd9e4568fd5",
        "android_client_info": {
          "package_name": "com.metagauge.dapp"
        }
      },
      "oauth_client": [
        {
          "client_id": "103610082256-ihhhanak03127vmm00hrgefpmh9vefrj.apps.googleusercontent.com",
          "client_type": 1,
          "android_info": {
            "package_name": "com.metagauge.dapp",
            "certificate_hash": "5ede3eb792351ff2c8bdb0ca138a50c19cad1448"
          }
        }
      ],
      "api_key": [
        {
          "current_key": "AIzaSyB4L_P8Ro-SHuVE0o7Y9LhdWpOPakPsxiw"
        }
      ],
      "services": {
        "appinvite_service": {
          "other_platform_oauth_client": [
            {
              "client_id": "103610082256-rj154b846hds23pm09e1mk32k5boa6gt.apps.googleusercontent.com",
              "client_type": 3
            },
            {
              "client_id": "103610082256-1dusolfcnab4poh5lbetl1bml11mh3qp.apps.googleusercontent.com",
              "client_type": 2,
              "ios_info": {
                "bundle_id": "com.metagauge.dapp"
              }
            }
          ]
        }
      }
    }
  ],
  "configuration_version": "1"
}